-GD
-G2
-Alfw

-DWOW
-D_WINDLL
-DDBG=1
-DDEVL=1
-IW:\nt\private\ole32\olethunk\ole16\inc
-IW:\nt\private\ole32\olethunk\h
-IW:\nt\private\cinc
/NMSEG_CODE
/Odi
/Zip
-DDBG=1
-DDEVL=1
-Foobjddayt\output.obj
output.c
